<svg width="26" height="22" viewBox="0 0 26 22" fill="none" xmlns="http://www.w3.org/2000/svg">
<path fill-rule="evenodd" clip-rule="evenodd" d="M2.46324 14.0189C1.03766 13.5866 0 12.2622 0 10.6954C0 9.13359 1.03113 7.8126 2.44976 7.37607C3.8401 3.0949 7.86193 0 12.6066 0C17.3448 0 21.362 3.08636 22.7577 7.35833C24.2069 7.77582 25.267 9.11182 25.267 10.6954C25.267 12.2839 24.2004 13.6233 22.7442 14.0363C21.3363 18.2871 17.3296 21.3537 12.6066 21.3537C7.87717 21.3537 3.86594 18.2787 2.46324 14.0189ZM20.9449 14.1678H4.46155C5.81241 17.3865 8.99383 19.6472 12.7032 19.6472C16.4127 19.6472 19.5941 17.3865 20.9449 14.1678ZM20.9301 7.22304C19.5709 4.02299 16.3992 1.77877 12.7032 1.77877C9.00733 1.77877 5.83557 4.02299 4.47637 7.22304H20.9301ZM1.4776 10.6955C1.4776 9.59378 2.37069 8.70069 3.47237 8.70069H21.7947C22.8963 8.70069 23.7894 9.59378 23.7894 10.6955C23.7894 11.7971 22.8963 12.6902 21.7947 12.6902H3.47237C2.37069 12.6902 1.4776 11.7971 1.4776 10.6955Z" fill="#8C8C8C"/>
</svg>
