<svg width="13" height="12" viewBox="0 0 13 12" fill="none" xmlns="http://www.w3.org/2000/svg">
<path d="M6.07498 0.861184C6.24884 0.508913 6.75116 0.508913 6.92502 0.861184L8.30002 3.64725C8.36906 3.78714 8.50252 3.88409 8.65689 3.90653L11.7315 4.35329C12.1202 4.40978 12.2755 4.88752 11.9942 5.16173L9.76937 7.33038C9.65766 7.43926 9.60669 7.59615 9.63306 7.7499L10.1583 10.8121C10.2247 11.1993 9.81828 11.4945 9.47056 11.3117L6.72055 9.86595C6.58248 9.79336 6.41752 9.79336 6.27945 9.86595L3.52944 11.3117C3.18172 11.4945 2.77533 11.1993 2.84174 10.8121L3.36694 7.7499C3.39331 7.59615 3.34234 7.43926 3.23063 7.33038L1.00583 5.16173C0.724524 4.88752 0.879752 4.40978 1.26851 4.35329L4.34311 3.90653C4.49748 3.88409 4.63094 3.78714 4.69998 3.64725L6.07498 0.861184Z" stroke="white"/>
</svg>
