<svg width="12" height="10" viewBox="0 0 12 10" fill="none" xmlns="http://www.w3.org/2000/svg">
<path d="M9.44385 4.47795C10.1737 4.3754 10.7356 3.74967 10.7372 2.99157C10.7372 2.24446 10.1925 1.62501 9.47838 1.50781" stroke="#C1C1C1" stroke-width="0.5" stroke-linecap="round" stroke-linejoin="round"/>
<path d="M10.4062 6.23126C11.1131 6.33695 11.6064 6.58441 11.6064 7.09452C11.6064 7.44558 11.3741 7.67369 10.9985 7.81704" stroke="#C1C1C1" stroke-width="0.5" stroke-linecap="round" stroke-linejoin="round"/>
<path fill-rule="evenodd" clip-rule="evenodd" d="M6.30371 6.44843C4.62218 6.44843 3.18604 6.70322 3.18604 7.72082C3.18604 8.73789 4.61329 9.00001 6.30371 9.00001C7.98523 9.00001 9.42085 8.74783 9.42085 7.72971C9.42085 6.71159 7.99412 6.44843 6.30371 6.44843Z" stroke="#C1C1C1" stroke-width="0.5" stroke-linecap="round" stroke-linejoin="round"/>
<path fill-rule="evenodd" clip-rule="evenodd" d="M6.30422 4.9961C7.40762 4.9961 8.30227 4.10198 8.30227 2.99805C8.30227 1.89465 7.40762 1 6.30422 1C5.20082 1 4.30617 1.89465 4.30617 2.99805C4.30198 4.09779 5.18983 4.99244 6.28957 4.9961H6.30422Z" stroke="#C1C1C1" stroke-width="0.5" stroke-linecap="round" stroke-linejoin="round"/>
<path d="M3.16368 4.47795C2.43331 4.3754 1.87193 3.74967 1.87036 2.99157C1.87036 2.24446 2.415 1.62501 3.12915 1.50781" stroke="#C1C1C1" stroke-width="0.5" stroke-linecap="round" stroke-linejoin="round"/>
<path d="M2.20019 6.23126C1.49337 6.33695 1 6.58441 1 7.09452C1 7.44558 1.23229 7.67369 1.60794 7.81704" stroke="#C1C1C1" stroke-width="0.5" stroke-linecap="round" stroke-linejoin="round"/>
</svg>
